('/home/cameron/Documents/Projects/renamer-python/build/renamer/out00-PKG.pkg',
 {'BINARY': 1,
  'DATA': 1,
  'EXECUTABLE': 1,
  'EXTENSION': 1,
  'PYMODULE': 1,
  'PYSOURCE': 1,
  'PYZ': 0},
 [('out00-PYZ.pyz',
   '/home/cameron/Documents/Projects/renamer-python/build/renamer/out00-PYZ.pyz',
   'PYZ'),
  ('struct',
   '/home/cameron/Documents/Projects/renamer-python/build/renamer/localpycos/struct.pyo',
   'PYMODULE'),
  ('pyimod01_os_path',
   '/home/cameron/Documents/Projects/renamer-python/build/renamer/localpycos/pyimod01_os_path.pyc',
   'PYMODULE'),
  ('pyimod02_archive',
   '/home/cameron/Documents/Projects/renamer-python/build/renamer/localpycos/pyimod02_archive.pyc',
   'PYMODULE'),
  ('pyimod03_importers',
   '/home/cameron/Documents/Projects/renamer-python/build/renamer/localpycos/pyimod03_importers.pyc',
   'PYMODULE'),
  ('pyiboot01_bootstrap',
   '/usr/local/lib/python3.5/dist-packages/PyInstaller/loader/pyiboot01_bootstrap.py',
   'PYSOURCE'),
  ('renamer',
   '/home/cameron/Documents/Projects/renamer-python/renamer.py',
   'PYSOURCE')],
 True,
 False,
 False)
