('/home/cameron/Documents/Projects/renamer-python/build/renamer/renamer',
 True,
 False,
 True,
 None,
 None,
 False,
 False,
 None,
 True,
 'renamer.pkg',
 [('out00-PYZ.pyz',
   '/home/cameron/Documents/Projects/renamer-python/build/renamer/out00-PYZ.pyz',
   'PYZ'),
  ('struct',
   '/home/cameron/Documents/Projects/renamer-python/build/renamer/localpycos/struct.pyo',
   'PYMODULE'),
  ('pyimod01_os_path',
   '/home/cameron/Documents/Projects/renamer-python/build/renamer/localpycos/pyimod01_os_path.pyc',
   'PYMODULE'),
  ('pyimod02_archive',
   '/home/cameron/Documents/Projects/renamer-python/build/renamer/localpycos/pyimod02_archive.pyc',
   'PYMODULE'),
  ('pyimod03_importers',
   '/home/cameron/Documents/Projects/renamer-python/build/renamer/localpycos/pyimod03_importers.pyc',
   'PYMODULE'),
  ('pyiboot01_bootstrap',
   '/usr/local/lib/python3.5/dist-packages/PyInstaller/loader/pyiboot01_bootstrap.py',
   'PYSOURCE'),
  ('renamer',
   '/home/cameron/Documents/Projects/renamer-python/renamer.py',
   'PYSOURCE')],
 [],
 False,
 False,
 1526117662,
 [('run',
   '/usr/local/lib/python3.5/dist-packages/PyInstaller/bootloader/Linux-64bit/run',
   'EXECUTABLE')])
